3 Biased transmission: frequency-dependent indirect bias | Individual-based models of cultural evolution
…
# Create first generation
population <- tibble(trait = sample(c("A", "B"), N, 
                                    replace = TRUE, prob = c(p_0, 1 - p_0))) 

Now we create another tibble called demonstrators that picks, for each new individual in the next generation, three demonstrators at random from the current population of individuals. It therefore needs three columns/variables, one for each of the demonstrators, and \(N\) rows, one for each individual. We fill each column with randomly chosen traits from thepopulation tibble. We can have a look at demonstrators by entering its name in the R console.

# Create a tibble with a set of 3 randomly-picked demonstrators for each agent
demonstrators <- tibble(dem1 = sample(population$trait, N, replace = TRUE), 
                        dem2 = sample(population$trait, N, replace = TRUE), 
                        dem3 = sample(population$trait, N, replace = TRUE))

# Visualise the tibble
demonstrators

## # A tibble: 100 x 3
##    dem1  dem2  dem3 
##    <chr> <chr> <chr>
##  1 A     A     B    
##  2 A     B     B    
##  3 B     B     B    
##  4 A     A     B    
##  5 A     B     A    
##  6 A     A     B    
##  7 B     B     B    
##  8 A     A     A    
##  9 A     A     B    
## 10 A     A     B    
## # … with 90 more rows
…
To check it works, we can add the new population tibble as a column to demonstrators and have a look at it. This will let us see the three demonstrators and the resulting new trait side by side.

demonstrators <- add_column(demonstrators, new_trait = population$trait)

# Visualise the tibble
demonstrators

## # A tibble: 100 x 4
##    dem1  dem2  dem3  new_trait
##    <chr> <chr> <chr> <chr>    
##  1 A     A     B     A        
##  2 A     B     B     B        
##  3 B     B     B     B        
##  4 A     A     B     A        
##  5 A     B     A     A        
##  6 A     A     B     A        
##  7 B     B     B     B        
##  8 A     A     A     A        
##  9 A     A     B     A        
## 10 A     A     B     A        
## # … with 90 more rows
…
# 3-demonstrator combinations with one A and two Bs
if (nrow(population[prob_minority & num_As == 1, ]) > 0) {
  population[prob_minority & num_As == 1, ] <- "A"
}
if (nrow(population[prob_minority == FALSE & num_As == 1, ]) > 0) {
  population[prob_minority == FALSE & num_As == 1, ] <- "B"
}  

demonstrators <- add_column(demonstrators, new_trait = population$trait)

# Visualise the tibble
demonstrators

## # A tibble: 100 x 4
##    dem1  dem2  dem3  new_trait
##    <chr> <chr> <chr> <chr>    
##  1 A     A     A     A        
##  2 B     A     A     A        
##  3 A     A     B     B        
##  4 B     A     A     A        
##  5 A     A     A     A        
##  6 B     A     B     A        
##  7 A     A     A     A        
##  8 A     A     B     A        
##  9 B     B     B     B        
## 10 A     A     B     B        
## # … with 90 more rows
…
